"nama_lengkap","jenis_kelamin","nomor_induk","tanggal_lahir","status_pekerja","level","tahun_mulai_bekerja","tahun_mulai_profesional","metode_rekrutmen","supervisor","handphone","email","organization_unit","username"
"Muhammad Sidi Mustaqbal","L","123","1993-06-03","Kontrak","Junior","2015","2015","Open Recruitment",NULL,"085768630298","sidi.mustaqbal@gmail.com","Departement 1","Sidi Nuesto"
"Peter","L",,,"Sub Kontrak","Junior","2015",NULL,"Open Recruitment",NULL,,,"Departement 1","perterpan"
"Lala Sri","P",,,"Sub Kontrak","Senior","2015",NULL,"Campus Recruitment",NULL,,,"Departement 1",NULL
